DLBCL proteins chapter main figures
…
# Post-hoc Dunn's test (without correction)
fig3A_dunn <- fig3A_data %>%
  group_by(inhibitor, cell_clean) %>%
  dunn_test(counts_norm ~ cell_stim_conc, p.adjust.method = "none") %>%
  slice(-c(3, 4, 9, 10, 16, 17, 21, 22, 27, 28, 33, 34)) %>%
  group_by(inhibitor, cell_clean) %>%
  adjust_pvalue(method = "BH") %>%
  mutate(y.position = 3000, 
         inhib_cell = paste(inhibitor, cell_clean))
fig3A_dunn

# A tibble: 24 × 13
   inhibitor cell_clean  .y.   group1 group2    n1    n2 statistic      p  p.adj
   <fct>     <chr>       <chr> <chr>  <chr>  <int> <int>     <dbl>  <dbl>  <dbl>
 1 iBTK      ABC subtype coun… "0 uM… "0 uM…     3     3    -2.15  0.0315 0.108 
 2 iBTK      ABC subtype coun… "0 uM… "100 …     3     3    -1.02  0.308  0.411 
 3 iBTK      ABC subtype coun… "0 uM… "100 …     3     3    -0.793 0.428  0.428 
 4 iBTK      ABC subtype coun… "100 … "100 …     3     3    -1.92  0.0542 0.108 
 5 iBTK      GCB subtype coun… "0 uM… "0 uM…     3     3    -1.81  0.0700 0.140 
 6 iBTK      GCB subtype coun… "0 uM… "100 …     3     3    -1.25  0.213  0.213 
 7 iBTK      GCB subtype coun… "0 uM… "100 …     3     3    -1.25  0.213  0.213 
 8 iBTK      GCB subtype coun… "100 … "100 …     3     3    -1.81  0.0700 0.140 
 9 iSYK      ABC subtype coun… "0 uM… "0 uM…     3     3    -2.04  0.0415 0.0554
10 iSYK      ABC subtype coun… "0 uM… "100 …     3     3    -1.02  0.308  0.308 
# ℹ 14 more rows
# ℹ 3 more variables: p.adj.signif <chr>, y.position <dbl>, inhib_cell <chr>
…
# Post-hoc Dunn's test (without correction)
fig3B_dunn <- fig3B_data %>%
  group_by(inhibitor, cell_clean) %>%
  dunn_test(counts_norm ~ cell_stim_conc, p.adjust.method = "none") %>%
  slice(-c(3, 4, 9, 10, 16, 17, 21, 22, 27, 28, 33, 34)) %>%
  group_by(inhibitor, cell_clean) %>%
  adjust_pvalue(method = "BH") %>%
  mutate(y.position = 3000, 
         inhib_cell = paste(inhibitor, cell_clean))
fig3B_dunn

# A tibble: 24 × 13
   inhibitor cell_clean .y.   group1 group2    n1    n2 statistic       p  p.adj
   <fct>     <chr>      <chr> <chr>  <chr>  <int> <int>     <dbl>   <dbl>  <dbl>
 1 iBTK      ABC subty… coun… "0 uM… "0 uM…     3     3    -2.60  0.00921 0.0368
 2 iBTK      ABC subty… coun… "0 uM… "100 …     3     3    -1.02  0.308   0.411 
 3 iBTK      ABC subty… coun… "0 uM… "100 …     3     3     0.113 0.910   0.910 
 4 iBTK      ABC subty… coun… "100 … "100 …     3     3    -1.47  0.141   0.282 
 5 iBTK      GCB subty… coun… "0 uM… "0 uM…     3     3    -2.49  0.0127  0.0510
 6 iBTK      GCB subty… coun… "0 uM… "100 …     3     3    -2.04  0.0415  0.0831
 7 iBTK      GCB subty… coun… "0 uM… "100 …     3     3     0.906 0.365   0.487 
 8 iBTK      GCB subty… coun… "100 … "100 …     3     3     0.453 0.651   0.651 
 9 iSYK      ABC subty… coun… "0 uM… "0 uM…     3     3    -2.49  0.0127  0.0255
10 iSYK      ABC subty… coun… "0 uM… "100 …     3     3    -1.02  0.308   0.308 
# ℹ 14 more rows
# ℹ 3 more variables: p.adj.signif <chr>, y.position <dbl>, inhib_cell <chr>
…
# Post-hoc Dunn's test (without correction)
fig3C_dunn <- fig3C_data %>%
  group_by(inhibitor, cell_clean) %>%
  dunn_test(counts_norm ~ cell_stim_conc, p.adjust.method = "none") %>%
  slice(-c(3, 4, 9, 10, 16, 17, 21, 22, 27, 28, 33, 34)) %>%
  group_by(inhibitor, cell_clean) %>%
  adjust_pvalue(method = "BH") %>%
  mutate(y.position = 3000, 
         inhib_cell = paste(inhibitor, cell_clean))
fig3C_dunn

# A tibble: 24 × 13
   inhibitor cell_clean .y.   group1 group2    n1    n2 statistic       p  p.adj
   <fct>     <chr>      <chr> <chr>  <chr>  <int> <int>     <dbl>   <dbl>  <dbl>
 1 iBTK      ABC subty… coun… "0 uM… "0 uM…     3     3    -0.566 0.571   0.571 
 2 iBTK      ABC subty… coun… "0 uM… "100 …     3     3    -2.60  0.00921 0.0368
 3 iBTK      ABC subty… coun… "0 uM… "100 …     3     3    -1.47  0.141   0.282 
 4 iBTK      ABC subty… coun… "100 … "100 …     3     3     0.566 0.571   0.571 
 5 iBTK      GCB subty… coun… "0 uM… "0 uM…     3     3    -1.02  0.308   0.411 
 6 iBTK      GCB subty… coun… "0 uM… "100 …     3     3    -2.72  0.00658 0.0263
 7 iBTK      GCB subty… coun… "0 uM… "100 …     3     3    -1.36  0.174   0.348 
 8 iBTK      GCB subty… coun… "100 … "100 …     3     3     0.340 0.734   0.734 
 9 iSYK      ABC subty… coun… "0 uM… "0 uM…     3     3    -2.38  0.0174  0.0697
10 iSYK      ABC subty… coun… "0 uM… "100 …     3     3    -0.113 0.910   0.910 
# ℹ 14 more rows
# ℹ 3 more variables: p.adj.signif <chr>, y.position <dbl>, inhib_cell <chr>
…
