DLBCL states chapter supplementary figures
…
  arrange(plot_order) %>%
    mutate(grouping = c(rep("DMSO ctrl", times = 12), 
                        rep("Single inhibitor", times = 3), 
                        rep("Two inhibitors", times = 3), 
                        rep("Three inhibitors equal", times = 3), 
                        rep("Three inhibitors mixed", times = 3)), 
           grouping_alt = c(rep("lvl1", times = 12), 
                         rep("lvl1", times = 3), 
                         rep("lvl2", times = 3), 
                         rep("lvl3", times = 3), 
                         rep("lvl4", times = 3))) %>%
  arrange(plot_order_alt)
figS10A_dunn

# A tibble: 24 × 15
   .y.     group1 group2    n1    n2 statistic       p  p.adj p.adj.signif  xmin
   <chr>   <chr>  <chr>  <int> <int>     <dbl>   <dbl>  <dbl> <chr>        <dbl>
 1 counts… 10 uM… 10 uM…     3     3     0.967 0.334   0.572  ns               2
 2 counts… 10 uM… 10 uM…     3     3     0.501 0.616   0.845  ns               2
 3 counts… 10 uM… 10 uM…     3     3     0.465 0.642   0.845  ns               4
 4 counts… 10 uM… DMSO …     3     3     1.29  0.197   0.431  ns               2
 5 counts… 10 uM… DMSO …     3     3     0.322 0.747   0.845  ns               3
 6 counts… 10 uM… DMSO …     3     3     0.788 0.431   0.646  ns               4
 7 counts… 2.5 u… DMSO …     3     3     2.86  0.00418 0.0334 **               5
 8 counts… 2.5 u… DMSO …     3     3     2.65  0.00806 0.0477 **               6
 9 counts… 2.5 u… DMSO …     3     3     1.54  0.124   0.330  ns               7
10 counts… 1 uM … DMSO …     3     3     2.29  0.0219  0.0752 *                8
# ℹ 14 more rows
# ℹ 5 more variables: xmax <dbl>, plot_order <dbl>, plot_order_alt <dbl>,
#   grouping <chr>, grouping_alt <chr>
…
  arrange(plot_order) %>%
    mutate(grouping = c(rep("DMSO ctrl", times = 12), 
                        rep("Single inhibitor", times = 3), 
                        rep("Two inhibitors", times = 3), 
                        rep("Three inhibitors equal", times = 3), 
                        rep("Three inhibitors mixed", times = 3)), 
           grouping_alt = c(rep("lvl1", times = 12), 
                         rep("lvl1", times = 3), 
                         rep("lvl2", times = 3), 
                         rep("lvl3", times = 3), 
                         rep("lvl4", times = 3))) %>%
  arrange(plot_order_alt)
figS10B_dunn

# A tibble: 24 × 15
   .y.     group1 group2    n1    n2 statistic       p  p.adj p.adj.signif  xmin
   <chr>   <chr>  <chr>  <int> <int>     <dbl>   <dbl>  <dbl> <chr>        <dbl>
 1 counts… 10 uM… 10 uM…     3     3     0.394 0.694   0.757  ns               2
 2 counts… 10 uM… 10 uM…     3     3     1.47  0.142   0.260  ns               2
 3 counts… 10 uM… 10 uM…     3     3    -1.07  0.283   0.357  ns               4
 4 counts… 10 uM… DMSO …     3     3     2.36  0.0181  0.0725 *                2
 5 counts… 10 uM… DMSO …     3     3     1.97  0.0489  0.142  *                3
 6 counts… 10 uM… DMSO …     3     3     0.895 0.371   0.445  ns               4
 7 counts… 2.5 u… DMSO …     3     3     1.43  0.152   0.260  ns               5
 8 counts… 2.5 u… DMSO …     3     3     2.65  0.00806 0.0477 **               6
 9 counts… 2.5 u… DMSO …     3     3     1.25  0.210   0.298  ns               7
10 counts… 1 uM … DMSO …     3     3     1.47  0.142   0.260  ns               8
# ℹ 14 more rows
# ℹ 5 more variables: xmax <dbl>, plot_order <dbl>, plot_order_alt <dbl>,
#   grouping <chr>, grouping_alt <chr>
…
  arrange(plot_order) %>%
    mutate(grouping = c(rep("DMSO ctrl", times = 12), 
                        rep("Single inhibitor", times = 3), 
                        rep("Two inhibitors", times = 3), 
                        rep("Three inhibitors equal", times = 3), 
                        rep("Three inhibitors mixed", times = 3)), 
           grouping_alt = c(rep("lvl1", times = 12), 
                         rep("lvl1", times = 3), 
                         rep("lvl2", times = 3), 
                         rep("lvl3", times = 3), 
                         rep("lvl4", times = 3))) %>%
  arrange(plot_order_alt)
figS11A_dunn

# A tibble: 24 × 15
   .y.     group1 group2    n1    n2 statistic       p  p.adj p.adj.signif  xmin
   <chr>   <chr>  <chr>  <int> <int>     <dbl>   <dbl>  <dbl> <chr>        <dbl>
 1 counts… 10 uM… 10 uM…     3     3    -0.967 0.334   0.445  ns               2
 2 counts… 10 uM… 10 uM…     3     3     1.65  0.0995  0.199  ns               2
 3 counts… 10 uM… 10 uM…     3     3    -2.61  0.00895 0.0430 **               4
 4 counts… 10 uM… DMSO …     3     3     1.43  0.152   0.260  ns               2
 5 counts… 10 uM… DMSO …     3     3     2.40  0.0164  0.0658 *                3
 6 counts… 10 uM… DMSO …     3     3    -0.215 0.830   0.830  ns               4
 7 counts… 2.5 u… DMSO …     3     3     1.54  0.124   0.228  ns               5
 8 counts… 2.5 u… DMSO …     3     3     0.358 0.720   0.752  ns               6
 9 counts… 2.5 u… DMSO …     3     3     2.04  0.0413  0.124  *                7
10 counts… 1 uM … DMSO …     3     3     0.788 0.431   0.544  ns               8
# ℹ 14 more rows
# ℹ 5 more variables: xmax <dbl>, plot_order <dbl>, plot_order_alt <dbl>,
#   grouping <chr>, grouping_alt <chr>
…
  arrange(plot_order) %>%
    mutate(grouping = c(rep("DMSO ctrl", times = 12), 
                        rep("Single inhibitor", times = 3), 
                        rep("Two inhibitors", times = 3), 
                        rep("Three inhibitors equal", times = 3), 
                        rep("Three inhibitors mixed", times = 3)), 
           grouping_alt = c(rep("lvl1", times = 12), 
                         rep("lvl1", times = 3), 
                         rep("lvl2", times = 3), 
                         rep("lvl3", times = 3), 
                         rep("lvl4", times = 3))) %>%
  arrange(plot_order_alt)
figS11B_dunn

# A tibble: 24 × 15
   .y.     group1 group2    n1    n2 statistic       p  p.adj p.adj.signif  xmin
   <chr>   <chr>  <chr>  <int> <int>     <dbl>   <dbl>  <dbl> <chr>        <dbl>
 1 counts… 10 uM… 10 uM…     3     3    -0.788 0.431   0.638  ns               2
 2 counts… 10 uM… 10 uM…     3     3    -0.430 0.667   0.728  ns               2
 3 counts… 10 uM… 10 uM…     3     3    -0.358 0.720   0.747  ns               4
 4 counts… 10 uM… DMSO …     3     3     0.322 0.747   0.747  ns               2
 5 counts… 10 uM… DMSO …     3     3     1.11  0.267   0.452  ns               3
 6 counts… 10 uM… DMSO …     3     3     0.752 0.452   0.638  ns               4
 7 counts… 2.5 u… DMSO …     3     3     1.58  0.115   0.276  ns               5
 8 counts… 2.5 u… DMSO …     3     3     1.07  0.283   0.452  ns               6
 9 counts… 2.5 u… DMSO …     3     3     2.72  0.00650 0.0312 **               7
10 counts… 1 uM … DMSO …     3     3     2.08  0.0378  0.130  *                8
# ℹ 14 more rows
# ℹ 5 more variables: xmax <dbl>, plot_order <dbl>, plot_order_alt <dbl>,
#   grouping <chr>, grouping_alt <chr>
…
